{
  "queryType": "regularQuery",
  "results": [
    {
      "query": {
        "measures": [
          "SnowplowTrackedEvents.pageViewsCount"
        ],
        "timezone": "UTC",
        "order": [

        ],
        "filters": [

        ],
        "dimensions": [

        ],
        "timeDimensions": [

        ],
        "queryType": "regularQuery"
      },
      "data": [
        {
          "SnowplowTrackedEvents.pageViewsCount": "335"
        }
      ],
      "lastRefreshTime": "2022-11-25T15:37:31.835Z",
      "refreshKeyValues": [
        [
          {
            "refresh_key": "166939063"
          }
        ]
      ],
      "usedPreAggregations": {
      },
      "transformedQuery": {
        "sortedDimensions": [

        ],
        "sortedTimeDimensions": [

        ],
        "timeDimensions": [

        ],
        "measures": [
          "SnowplowTrackedEvents.pageViewsCount"
        ],
        "leafMeasureAdditive": true,
        "leafMeasures": [
          "SnowplowTrackedEvents.pageViewsCount"
        ],
        "measureToLeafMeasures": {
          "SnowplowTrackedEvents.pageViewsCount": [
            {
              "measure": "SnowplowTrackedEvents.pageViewsCount",
              "additive": true,
              "type": "count"
            }
          ]
        },
        "hasNoTimeDimensionsWithoutGranularity": true,
        "allFiltersWithinSelectedDimensions": true,
        "isAdditive": true,
        "granularityHierarchies": {
          "year": [
            "year",
            "quarter",
            "month",
            "month",
            "day",
            "hour",
            "minute",
            "second"
          ],
          "quarter": [
            "quarter",
            "month",
            "day",
            "hour",
            "minute",
            "second"
          ],
          "month": [
            "month",
            "day",
            "hour",
            "minute",
            "second"
          ],
          "week": [
            "week",
            "day",
            "hour",
            "minute",
            "second"
          ],
          "day": [
            "day",
            "hour",
            "minute",
            "second"
          ],
          "hour": [
            "hour",
            "minute",
            "second"
          ],
          "minute": [
            "minute",
            "second"
          ],
          "second": [
            "second"
          ]
        },
        "hasMultipliedMeasures": false,
        "hasCumulativeMeasures": false,
        "windowGranularity": null,
        "filterDimensionsSingleValueEqual": {
        },
        "ownedDimensions": [

        ],
        "ownedTimeDimensionsWithRollupGranularity": [

        ],
        "ownedTimeDimensionsAsIs": [

        ]
      },
      "requestId": "7c3d84eb-3217-4365-ba03-31019313b8ce-span-1",
      "annotation": {
        "measures": {
          "SnowplowTrackedEvents.pageViewsCount": {
            "title": "TrackedEvents Count",
            "shortTitle": "Count",
            "type": "number",
            "drillMembers": [
              "TrackedEvents.eventnCtxEventId",
              "TrackedEvents.idsAjsAnonymousId",
              "TrackedEvents.pageTitle",
              "TrackedEvents.userAnonymousId",
              "TrackedEvents.userHashedAnonymousId"
            ],
            "drillMembersGrouped": {
              "measures": [

              ],
              "dimensions": [
                "TrackedEvents.eventnCtxEventId",
                "TrackedEvents.idsAjsAnonymousId",
                "TrackedEvents.pageTitle",
                "TrackedEvents.userAnonymousId",
                "TrackedEvents.userHashedAnonymousId"
              ]
            }
          }
        },
        "dimensions": {
        },
        "segments": {
        },
        "timeDimensions": {
        }
      },
      "dataSource": "default",
      "dbType": "clickhouse",
      "extDbType": "cubestore",
      "external": false,
      "slowQuery": false,
      "total": null
    }
  ],
  "pivotQuery": {
    "measures": [
      "SnowplowTrackedEvents.pageViewsCount"
    ],
    "timezone": "UTC",
    "order": [

    ],
    "filters": [

    ],
    "dimensions": [

    ],
    "timeDimensions": [

    ],
    "queryType": "regularQuery"
  },
  "slowQuery": false
}
